{
  "project_info": {
    "project_number": "9749379587",
    "firebase_url": "https://surf-locker-ca527.firebaseio.com",
    "project_id": "surf-locker-ca527",
    "storage_bucket": "surf-locker-ca527.appspot.com"
  },
  "client": [
    {
      "client_info": {
        "mobilesdk_app_id": "1:9749379587:android:9a5c966f316c353a",
        "android_client_info": {
          "package_name": "com.primeit.surflocker"
        }
      },
      "oauth_client": [
        {
          "client_id": "9749379587-mmipndbuv3u7h9spfq6kkqqmqljjpif7.apps.googleusercontent.com",
          "client_type": 3
        }
      ],
      "api_key": [
        {
          "current_key": "AIzaSyAgbPF7IkeaeuPnuRhoJ_Aabvpl7Z0514Q"
        }
      ],
      "services": {
        "appinvite_service": {
          "other_platform_oauth_client": [
            {
              "client_id": "9749379587-mmipndbuv3u7h9spfq6kkqqmqljjpif7.apps.googleusercontent.com",
              "client_type": 3
            }
          ]
        }
      }
    }
  ],
  "configuration_version": "1"
}